{"DataSet":[{"Nickname":"AndreF","Score":43,"ShotsMissed":21,"ShotsHit":225,"Time":"02:44","TimeofDay":"4/28/2018 12:23:33 PM","PlayerDied":"yes","difficultyType":"conventional","difficultyLevel":"medium","PADSExperience":"","PADSGoal":"","quitGame":""},
{"Nickname":"AndreF","Score":31,"ShotsMissed":26,"ShotsHit":90,"Time":"02:20","TimeofDay":"4/28/2018 12:26:22 PM","PlayerDied":"yes","difficultyType":"conventional","difficultyLevel":"medium","PADSExperience":"","PADSGoal":"","quitGame":""},
{"Nickname":"AndreF","Score":56,"ShotsMissed":41,"ShotsHit":157,"Time":"03:00","TimeofDay":"4/28/2018 12:29:13 PM","PlayerDied":"no","difficultyType":"conventional","difficultyLevel":"medium","PADSExperience":"","PADSGoal":"","quitGame":""},
{"Nickname":"AndreF","Score":45,"ShotsMissed":5,"ShotsHit":71,"Time":"03:00","TimeofDay":"4/28/2018 12:32:15 PM","PlayerDied":"no","difficultyType":"difficultyMaster","difficultyLevel":"","PADSExperience":"","PADSGoal":"","quitGame":""},
{"Nickname":"AndreF","Score":31,"ShotsMissed":6,"ShotsHit":79,"Time":"02:57","TimeofDay":"4/28/2018 12:35:17 PM","PlayerDied":"yes","difficultyType":"profiling","difficultyLevel":"","PADSExperience":"casual","PADSGoal":"challenge","quitGame":"true"}]}